<svg width="24" height="24" viewBox="0 0 24 24" fill="none" xmlns="http://www.w3.org/2000/svg">
<path d="M22.9145 7.03851L21.2424 5.3657V2.05085C21.2424 0.930695 20.3311 0.0193787 19.211 0.0193787H15.8997H13.3256C13.1745 0.0193787 13.1061 0.0194294 12.9714 0.0193787L11.0525 0.0194295C10.9178 0.0194295 10.7437 0.0194295 10.6224 0.0194295H8.10808H4.78754C3.66739 0.0194295 2.75607 0.930746 2.75607 2.0509V5.37103L1.08509 7.03815C0.590678 7.53231 0.318359 8.18944 0.318359 8.88852V20.6637C0.318359 21.3683 0.598905 22.0083 1.05355 22.4791C1.06335 22.4909 1.07356 22.5024 1.08458 22.5135C1.09555 22.5244 1.10703 22.5346 1.11871 22.5443C1.58955 22.999 2.22962 23.2797 2.93438 23.2797H9.7139C9.9944 23.2797 10.2218 23.0523 10.2218 22.7718C10.2218 22.4914 9.9944 22.264 9.7139 22.264H2.93433C2.67801 22.264 2.43581 22.2031 2.22078 22.0955L8.20696 16.1093L10.1558 18.057C10.6499 18.5508 11.3066 18.8227 12.005 18.8227H12.0059C12.7046 18.8225 13.3615 18.5501 13.8554 18.0559L15.7962 16.1139L21.7777 22.0955C21.5627 22.203 21.3205 22.264 21.0642 22.264H14.2847C14.0042 22.264 13.7768 22.4914 13.7768 22.7718C13.7768 23.0523 14.0042 23.2797 14.2847 23.2797H21.0643C21.7689 23.2797 22.409 22.9991 22.8798 22.5444C22.8916 22.5346 22.9031 22.5244 22.9141 22.5135C22.9251 22.5024 22.9353 22.4909 22.9452 22.4791C23.3997 22.0082 23.6803 21.3683 23.6803 20.6637V8.88776C23.6802 8.18934 23.4083 7.53261 22.9145 7.03851ZM21.2425 6.80245L22.1961 7.75653C22.2842 7.84465 22.3603 7.94145 22.4245 8.04465L21.2425 9.22747V6.80245ZM1.8028 7.75694L2.75612 6.8058V9.22579L1.57437 8.0448C1.63861 7.94165 1.71479 7.8449 1.8028 7.75694ZM1.50255 21.3772C1.39499 21.1622 1.33409 20.92 1.33409 20.6637V9.24062L7.48853 15.3912L1.50255 21.3772ZM13.137 17.3379C12.8348 17.6402 12.4331 17.8068 12.0056 17.8069C11.5783 17.8069 11.1762 17.6406 10.8739 17.3385L3.77186 10.2409V2.05085C3.77186 1.49077 4.22751 1.03511 4.78759 1.03511H19.211C19.7711 1.03511 20.2267 1.49077 20.2267 2.05085V5.51115C20.2219 5.55152 20.2219 5.59226 20.2267 5.63263V10.2438L13.137 17.3379ZM22.6645 20.6637C22.6645 20.92 22.6036 21.1622 22.4961 21.3772L16.5143 15.3955L22.6645 9.24148V20.6637Z" fill="#00ABCA"/>
<path d="M11.9993 22.3505C11.8658 22.3505 11.7347 22.4048 11.6403 22.4993C11.5458 22.5937 11.4915 22.7248 11.4915 22.8583C11.4915 22.9919 11.5458 23.1229 11.6403 23.2174C11.7347 23.3124 11.8658 23.3662 11.9993 23.3662C12.1329 23.3662 12.2639 23.3124 12.3584 23.2174C12.4528 23.1229 12.5072 22.9919 12.5072 22.8583C12.5072 22.7248 12.4528 22.5937 12.3584 22.4993C12.2639 22.4049 12.1329 22.3505 11.9993 22.3505Z" fill="#00ABCA"/>
<path d="M11.9992 3.24985C9.35517 3.24985 7.2041 5.40087 7.2041 8.04492C7.2041 10.7251 9.38463 12.9057 12.0648 12.9057H15.1516C15.4321 12.9057 15.6595 12.6782 15.6595 12.3978C15.6595 12.1174 15.4321 11.8899 15.1516 11.8899H12.0648C9.9447 11.8899 8.21983 10.1651 8.21983 8.04492C8.21983 5.96099 9.91525 4.26558 11.9992 4.26558C14.0832 4.26558 15.7786 5.96099 15.7786 8.04492V9.0857C15.7786 9.48569 15.4532 9.81108 15.0532 9.81108C14.6532 9.81108 14.3277 9.48569 14.3277 9.0857V7.91014C14.3277 6.51965 13.1965 5.38842 11.806 5.38842C10.3439 5.38842 9.15441 6.57795 9.15441 8.0401C9.15441 9.5022 10.3439 10.6917 11.806 10.6917H12.6139C12.8944 10.6917 13.1218 10.4643 13.1218 10.1839C13.1218 9.90341 12.8944 9.67599 12.6139 9.67599H11.806C10.904 9.67599 10.1701 8.94212 10.1701 8.04005C10.1701 7.13803 10.904 6.40416 11.806 6.40416C12.6364 6.40416 13.312 7.07977 13.312 7.91014V9.0857C13.312 10.0458 14.0931 10.8268 15.0532 10.8268C16.0133 10.8268 16.7944 10.0458 16.7944 9.0857V8.04492C16.7943 5.40087 14.6432 3.24985 11.9992 3.24985Z" fill="#00ABCA"/>
</svg>
